{
  "extends": [
    "tslint:recommended"
  ],
  "defaultSeverity": "error",
  "jsRules": {
    "semicolon": false,
    "object-literal-sort-keys": false
  },
  "rules": {
    "quotemark": [true, "single", "avoid-escape", "avoid-template"],
    "trailing-comma": false,
    "semicolon": false,
    "arrow-parens": [true, "ban-single-arg-parens"],
    "object-literal-sort-keys": false,
    "ordered-imports": false,
    "object-literal-key-quotes": false
  },
  "rulesDirectory": []
}
